﻿"user_email","date","cellular","wifi","unknown","unknown"
ewatts@finncap.com,2017-05-01 00:00:00,"470,850,767",0,0,0
ewatts@finncap.com,2017-05-02 00:00:00,"106,495,645",0,"782,103",0
ewatts@finncap.com,2017-05-03 00:00:00,"52,911,339","53,773","44,720",0
ewatts@finncap.com,2017-05-04 00:00:00,"101,839,600","14,893",0,0
ewatts@finncap.com,2017-05-05 00:00:00,"184,592,940","11,157","5,208",0
ewatts@finncap.com,2017-05-06 00:00:00,"25,764,204","2,151",0,0
ewatts@finncap.com,2017-05-07 00:00:00,"10,576,412","8,546",0,0
ewatts@finncap.com,2017-05-08 00:00:00,"170,812,685","1,736",2,0
ewatts@finncap.com,2017-05-09 00:00:00,"25,958,926","6,983",0,0
ewatts@finncap.com,2017-05-10 00:00:00,"5,075,270","17,363",0,0
ewatts@finncap.com,2017-05-11 00:00:00,"558,812,479",0,0,0
ewatts@finncap.com,2017-05-12 00:00:00,"316,415,237",0,0,0
ewatts@finncap.com,2017-05-13 00:00:00,"101,304,216",0,0,0
ewatts@finncap.com,2017-05-14 00:00:00,"40,531,587",0,0,0
ewatts@finncap.com,2017-05-15 00:00:00,"76,081,109","2,387","4,960,597",0
ewatts@finncap.com,2017-05-16 00:00:00,"95,182,884",0,"1,726,304",0
ewatts@finncap.com,2017-05-17 00:00:00,"71,938,720","6,996",0,0
ewatts@finncap.com,2017-05-18 00:00:00,"19,133,919",0,0,0
ewatts@finncap.com,2017-05-19 00:00:00,"317,341,964",0,"51,384",0
ewatts@finncap.com,2017-05-20 00:00:00,"72,909,119",0,0,"890,043"
ewatts@finncap.com,2017-05-21 00:00:00,"135,461,080",0,0,0
ewatts@finncap.com,2017-05-22 00:00:00,"312,726,961","11,776",0,0
ewatts@finncap.com,2017-05-23 00:00:00,"596,562,476","1,736","10,623",0
ewatts@finncap.com,2017-05-24 00:00:00,"16,137,310",0,0,0
ewatts@finncap.com,2017-05-25 00:00:00,"47,143,560","16,573","30,689",0
ewatts@finncap.com,2017-05-26 00:00:00,"63,833,742","7,063","1,030,296",0
ewatts@finncap.com,2017-05-27 00:00:00,"267,898,377",0,0,0
ewatts@finncap.com,2017-05-28 00:00:00,"216,531,669",0,0,0
ewatts@finncap.com,2017-05-29 00:00:00,"1,185,209,359","8,242",0,0
ewatts@finncap.com,2017-05-30 00:00:00,"999,921,846",724,0,0
hboros@finncap.com,2017-05-01 00:00:00,"1,216,161",0,0,0
hboros@finncap.com,2017-05-02 00:00:00,0,0,0,0
hboros@finncap.com,2017-05-03 00:00:00,"1,247,591,395","1,763",0,0
hboros@finncap.com,2017-05-04 00:00:00,"208,916,979",0,0,0
hboros@finncap.com,2017-05-05 00:00:00,"86,516,597","9,461","113,176",0
hboros@finncap.com,2017-05-06 00:00:00,"104,643,530","6,983","1,736",0
hboros@finncap.com,2017-05-07 00:00:00,"127,620,966",0,0,0
hboros@finncap.com,2017-05-08 00:00:00,"408,933,877",0,0,0
hboros@finncap.com,2017-05-09 00:00:00,"246,835,677",0,"6,844",0
hboros@finncap.com,2017-05-10 00:00:00,"322,348,426",0,0,0
hboros@finncap.com,2017-05-11 00:00:00,"273,072,992",0,0,0
hboros@finncap.com,2017-05-12 00:00:00,"202,169,310","9,291","43,159",0
hboros@finncap.com,2017-05-13 00:00:00,"469,539,121","13,797","1,904",0
hboros@finncap.com,2017-05-14 00:00:00,"179,559,228","14,595",0,0
hboros@finncap.com,2017-05-15 00:00:00,"152,647,954","3,271","34,823",0
hboros@finncap.com,2017-05-16 00:00:00,"69,242,261","1,736","2,168",0
hboros@finncap.com,2017-05-17 00:00:00,"99,136,751","9,660","55,582",0
hboros@finncap.com,2017-05-18 00:00:00,"159,987,126","53,068",0,0
hboros@finncap.com,2017-05-19 00:00:00,"104,786,491","25,785,896",0,0
hboros@finncap.com,2017-05-20 00:00:00,"22,661,126","48,747",0,0
hboros@finncap.com,2017-05-21 00:00:00,"43,018,364","59,894",0,0
hboros@finncap.com,2017-05-22 00:00:00,"41,550,344",0,415,0
hboros@finncap.com,2017-05-23 00:00:00,"120,689,402",434,"7,092",0
hboros@finncap.com,2017-05-24 00:00:00,"192,868,222","129,145",0,0
hboros@finncap.com,2017-05-25 00:00:00,"40,015,208","1,736",0,0
hboros@finncap.com,2017-05-26 00:00:00,"715,655,878",693,0,0
hboros@finncap.com,2017-05-27 00:00:00,"237,711,576","6,872",0,0
hboros@finncap.com,2017-05-28 00:00:00,"289,111,331","7,063",0,0
hboros@finncap.com,2017-05-29 00:00:00,"50,018,404","15,891",0,0
hboros@finncap.com,2017-05-30 00:00:00,"86,117,707",801,0,0
hevans@finncap.com,2017-05-01 00:00:00,"182,695,163","7,848",0,0
hevans@finncap.com,2017-05-02 00:00:00,"6,873,632",0,0,0
hevans@finncap.com,2017-05-03 00:00:00,"101,036,688",0,0,0
hevans@finncap.com,2017-05-04 00:00:00,"12,212,069",0,0,0
hevans@finncap.com,2017-05-05 00:00:00,"161,081,120",294,0,0
hevans@finncap.com,2017-05-06 00:00:00,"876,006,257",0,0,0
hevans@finncap.com,2017-05-07 00:00:00,"1,703,616,856",582,0,0
hevans@finncap.com,2017-05-08 00:00:00,"2,906,726",0,"8,445",0
hevans@finncap.com,2017-05-09 00:00:00,"249,214,669",0,0,0
hevans@finncap.com,2017-05-10 00:00:00,"310,133,339",0,0,0
hevans@finncap.com,2017-05-11 00:00:00,"166,161,795",0,0,0
hevans@finncap.com,2017-05-12 00:00:00,"327,282,352",0,0,0
hevans@finncap.com,2017-05-13 00:00:00,"554,220,266","16,690",0,0
hevans@finncap.com,2017-05-14 00:00:00,"287,711,406",0,0,0
hevans@finncap.com,2017-05-16 00:00:00,"54,797",0,0,0
hevans@finncap.com,2017-05-17 00:00:00,"361,324",0,0,0
hevans@finncap.com,2017-05-18 00:00:00,"193,198",0,0,0
hevans@finncap.com,2017-05-19 00:00:00,"712,625",0,0,0
hevans@finncap.com,2017-05-20 00:00:00,"147,146",0,0,0
hevans@finncap.com,2017-05-21 00:00:00,"1,334,428",0,0,0
hevans@finncap.com,2017-05-22 00:00:00,"96,165",0,0,0
hevans@finncap.com,2017-05-23 00:00:00,"382,718","2,269",0,0
hevans@finncap.com,2017-05-24 00:00:00,"4,622,750",0,0,0
hevans@finncap.com,2017-05-25 00:00:00,"113,012,756","213,699",0,0
hevans@finncap.com,2017-05-26 00:00:00,"66,768,719",0,"78,683",0
hevans@finncap.com,2017-05-27 00:00:00,"1,730,159,407",0,0,0
hevans@finncap.com,2017-05-28 00:00:00,"358,520,659",0,0,0
hevans@finncap.com,2017-05-29 00:00:00,"409,792,731",0,0,0
hevans@finncap.com,2017-05-30 00:00:00,"182,563,874",0,0,0
