6752ee88-785d-4940-b49e-e521020be7dd
7718e4c7-e8bc-4e01-84f6-f946c8e0a52f
5ab4a871-ef9a-4bf9-9676-9aefc1d62e73
d90f1315-1f4d-4144-98cd-1f53aa39add1
252761e7-cdd2-4ca7-8293-92f8e7110ea3
d52cc5b0-c5d5-440b-a533-3dd1382d8147
8c401960-e284-4c71-bc4c-7f481fb17874
b68d20d5-0dba-45fc-aa07-972d2eefb31f
93b902f6-47a6-4c42-bed4-8d200018d810
306f5148-fe12-4ea0-a6f2-524987565b13
99ac655f-a654-4bd0-a511-60e555ce9131
588e3691-7dd2-4786-8277-76178981e8da
74801351-1b15-4140-bc45-0fb78ab90b9e
90c316b3-fdb9-4606-b858-1b224242b748
4bcf4821-c4ad-42b5-ad30-1157fb6f2fb7
a65516c3-2f38-4269-b8e3-02178ef6e9da
8e16675e-b374-4b71-b574-4fa4919d735a
bef0e5ca-2cdb-4f34-ad22-7109f5083a05
c82437ed-a1cb-459d-ac1c-9d244127b608
909b9dd6-5729-485c-aacb-f9a36d60a5a4
9f5ac21f-48a7-41ea-842b-47e038805f24
2519a905-7e6a-48ae-aded-b4c9002eb2b8
b72e771b-e4a1-40ca-8b78-28992bb0f60e
c5c2d0ea-7921-4c42-b382-0698e64fca48
9c445038-ed03-444d-b838-b19075997c3c
50b95ac4-0135-47e4-9200-6273503df51d
f6805231-8f01-4c4a-b9bf-112a6fa91a35
4e54f034-325c-48d1-8c07-29761e78d625
da69e7f1-ddcc-4052-8fd0-6fb7250b48b3
53b5e094-fb6f-49ef-875d-6c694aadb926
0d7b8edd-175a-4015-b2c3-8ce63bdfda44
679f4f78-26ad-458a-8105-3a65cff1d16a
0544ecae-cb63-404b-a88b-c44d6d5feb53
848e8b7f-93fa-4eba-b32c-2f05e3421401
8510a181-828b-4143-9681-f9217b0607e1
8f66e330-03fc-47d2-a83c-75f49379d495
6faa2b25-82de-4858-921e-9dede6b5f9c0
32fa1a90-54da-4e9e-bfb5-27aa29c4f32b
f7326043-f1c7-4f2e-94a8-cf9851dd686a
6cfd373d-5312-4fe3-816b-7c87a124e039
0785bdf2-1eac-4cf2-a4c9-0f5296af6412
3fe9e20e-9d1a-4732-8471-924335b521d9
847fdb34-f73c-4db0-8712-24ffb8e80df7
018d117b-bf16-4b11-ae80-e160ffb1eef4
abda123f-e272-4eea-8a19-83b24a48e859
09e80f26-6470-4d48-bbd3-522e70ea6f74
c0085d93-4a39-46f6-95da-4253f2dbdc5d
6aa215f1-17ba-46ee-aeb0-b047f430cf51
2231dc28-3dd0-4350-a150-4dbf4f77cc04
5700ea32-ee0c-4935-bc16-0195c4b4e183
68f1dd72-b6b7-4642-afa8-be7106fd2153
65dc693f-84f7-4e64-8850-461660f7e197
0b1a2ce6-c2b1-4f00-a4c1-f6d686a6f372
23d133c9-3530-4d58-80a3-262c7338755c
fa7bf44a-0c31-42ea-ba56-f67b17738cbd
864d3c9c-34ec-42aa-8a98-9fb492de9361
6749c577-269d-4c64-b6c5-bf599a0fcbcf
98409bea-f613-4715-9b6e-aaf07feb48fc
ee08eae2-db14-48d5-8383-9e6ab8daa806
a0d63037-a0c5-454d-9a5c-613591276b31
b58cebb7-323e-4817-8d86-4665a0b37990
e7fe6152-e24f-458f-8f27-ab12463882a5
9b31fdbb-c497-4e89-955a-684af7799f73
9b4ca505-5b8f-45e3-b095-694625cd87b5
45813877-4ff4-451f-a0d8-6aa91b7fa585
ed199af6-c5ab-4bd8-95ae-3164cab71d6b
b651f2a9-9e5f-4b54-a87a-830ee1290296
46c2d5b7-8bdb-4af6-a88c-b0ac60d582a2
6b41ac24-cbd0-4f33-a464-c75b0521340b
d6777e3c-be7b-44a4-8cde-722b671cd2fa
19d06aa1-5469-4e19-a705-e64f0459a922
a9c2c6e8-6716-438f-bf17-dc10b35874a5
d10fc5c7-f5be-453c-b406-9537493ae13b
9dd7215a-edf0-49bc-89e0-eb668671e701
dadef37a-534c-489c-96eb-06cd4e8f13a2
855176cc-a66e-4ec1-af30-383067301054
4d542b0e-ce9f-4976-9dd4-7fa57e9b0af5
b6bb5ffd-35fd-4733-bf10-4e081d15ba79
c0a90833-187c-41a9-9585-07d8f6f18e7e
704f2950-5eed-42fb-bdc6-98e26a03db5b
c191f446-1a5b-4136-a8d0-194cb4e00041
7379e6d8-6d74-4f48-b735-7d5c43ccb251
569c3232-94ef-4590-bde2-a73aed446772
e878526c-bfec-4d8f-b2d7-e42c4637bb94
7c0740a6-c552-4d80-a9a5-5cedb6b2b89e
4dac9ab9-19bf-4251-a112-cc5ec0da7e92
31c2687e-7d7d-4c88-af94-aa486f04c121
3f5603f5-af6b-48ac-a194-26fbe199d7fa
83d6b60d-b0f1-4e0b-b963-d80234417e3f
6be92d59-06fc-4704-829c-997dd79ab6e2
a699f4c9-fb60-470d-b770-24a8e8fdeb12
3f5edba2-bd24-4775-8817-f2ed060b2584
8e35c5ec-f639-43b5-a766-40f39e681836
09e8edea-2201-46da-815f-cf1da2dfa3aa
efb30b17-65b5-467b-827b-4f92ce2b19ec
8e961f9b-9384-474d-961b-1409e74b5c89
59912d36-4bb6-44e2-86b1-4ab755a823f1
93c8fd6a-fa79-419a-981e-17f25caef3ab
28ad49a7-9068-4be6-b0db-d58da3f061f8
e13ca8c1-8a4c-4914-9274-830924884ae6
88d95757-4136-4787-8636-b1a3eaeff1a8
8a716521-25f8-49ca-aff5-5d7b490d1d61
f244934c-e42e-4de1-81e9-262c1ea2a75c
417e4dc6-8bdb-4c44-95a0-685586ac9dde
091f5f81-8981-4b87-a200-43352ca64030
d43e20b0-eb36-4f76-8791-4fb3fd871d2a
c5f83cec-eff6-4871-911f-84207cfd80dd
3baeb67f-f7dc-4574-8e36-c77b8c5faeab
e3ab8f6b-9ba3-46e6-a1ce-51f345b458db
0a0cd4e6-784d-4b9c-a6e2-5053b50c38a8
3d212fb8-8680-4fd8-bb21-b87a8989fbc9
c3ac5127-d3e5-4ea5-b339-886c2b2e33e6
d68cd92e-5a33-4a77-819a-0483b529a7ef
33da26b5-b4ed-4191-8685-57aaa970cbf8
bc7c04b7-0521-4ee2-b602-d5490ef99017
d2689292-0f5b-4b9f-b0c9-821a443daa38
eba77903-c8f8-4630-b303-c3ac91f8a9f6
c9e94e84-fa54-47f6-96e5-35c3ace53686
07182e31-3f0a-4932-b3bf-b216d6b19e09
fbf33562-721a-4d1d-9dc0-1e2860597775
3f174178-8d9c-4538-85b9-a8f22558e18b
a89828d7-d3b4-41f9-979e-fa259d876126
395e47eb-f18b-4468-afd8-1211cd35fcee
f557bf0c-6442-4f59-8517-50acb746f884
24727b77-f069-479f-90cd-380307e164d1
acd4452c-1e26-464f-8c6e-073b8d9b2ee6
670f10af-8795-4316-bd34-0c53fe137e39
078e7934-046e-4afa-9c6e-635a0d94deb5
39e33d5b-1ee8-4064-8205-2451b3a92826
19fd6272-40e7-4d41-92a3-07794b2dc094
698f79db-1efe-4f17-bfc8-e0848cbcca39
66879807-04cc-47ac-a758-e655bdbb09d9
6b141791-8577-42e5-88dd-711534aac4ba
6472b9d3-44af-48f7-816d-07813d289f3c
a3478519-bc0a-44df-b700-387c23862b56
679ec6df-71d1-486d-9251-b1aafe3bec71
fa511bff-d031-45f1-a15e-7357a831842f
06d68f67-467e-4ad2-b238-7f882ef25148
d1fc14fb-5922-4776-9fd8-fc2ad2d0cd5c
c56ff335-f7a6-43b9-8687-e136578d16d9
c4d81b2a-8be2-4683-b3ea-2ebc30bc630f
c9813801-8454-45c9-a542-419605f532a7
72bf54a4-f1d5-447f-8584-c7f18d421383
16fc6480-2a07-4633-8144-89cbc434e960
83a1edfd-a077-4be8-bde6-77ff366adabd
6be187f6-21b8-40cb-b92a-042b229b8850
bf22ae1b-1f3e-4698-8a7a-916a67c2d6d0
f4dfd204-dcb8-4507-b6e9-0a58f6cf631f
6aa5cd9f-4b84-4ffe-919e-73ac28b200d3
28686604-11d2-4531-b14f-90f774e68cc4
71d5218d-4838-4072-b345-7c22adfac43e
96247c18-13fd-42f2-ae2c-c1feee013b34
1089cab9-cd24-4c9b-a189-b8d60e282b7e
510ba955-115d-4878-acd4-957ad17f22be
2418d2a7-c5f7-4d32-b17f-7c9910a3d82c
114eb69d-067c-43e2-aa92-8826bddad561
aa9ae7ad-4395-4ce3-9f77-3e59c461cfa5
da8e302e-1cd5-4e3d-966c-61e745dc6ca0
392454b9-ec1f-40a5-a587-df0445c4b0bf
435fe07b-e8d7-4000-97f1-855803855dc9
4c347895-375c-487c-bd7a-9ba0f9a0a363
b1efbb74-1e95-4bb1-8cd7-4fff9d098768
99ce1798-d17f-462e-8ad9-9f27ed918504
70157c4e-7eec-49dc-8139-ecb7c60376e7
a4860b73-d6f6-4c2f-b819-bd7543e26b84
a7d877c3-3f21-4d82-bcfe-c7c833ef0ca0
60bf028a-2249-4a6d-9786-c3c9f974000d
d02e4c35-673d-424d-8527-3359763ac83a
b98ab260-ef42-42fb-a877-ef78b847ec7d
5d95a5ce-62ff-4192-8f75-a580678bff76
f6ee4f23-8c01-4bb9-9544-e5f2b88c543d
eefcd4af-d312-4b93-a7b7-5c61bc71955f
7d19c99b-c70a-4f63-857d-4d5f8998d7d4
78968b76-5aa6-42c8-ad83-98e158bd7b21
e1ed67a6-6028-4194-affd-0ae480762244
cd5b51ca-028f-4cf4-997e-1785ccbe2e49
cbb38d71-e4a4-47f8-a7d5-f8468b3e8219
28d327fc-5d7e-4be1-ab85-d77b8557c810
d77c2372-21e8-46b5-824e-005bf524b2d3
5368b82f-7def-498a-b6a6-65d3d4008b7c
557f868d-28d1-46c9-88da-f481bd96ca8e
2148fbd5-9341-4a29-b00c-3e45047eb686
6ab35ce2-ff48-4be3-adfe-4b227ec00662
f8f2a52c-f8a8-42e3-81fc-ceb32b337c91
fc86b05e-071a-478d-a13c-ba520b932942
344db6d8-9df1-455d-83ae-6f381a744eed
b1384966-70ac-4ff9-ad3f-3d29409ada9a
b6aabdeb-0e18-4784-96d5-611bd1853c33
533cba83-5d7d-4ee9-9c90-28f775a57d98
2b35190b-2680-45b9-9fe4-da83828350e1
1fb7d5a0-1b7b-4ac0-9b13-d12774c8703d
1596c3ff-d842-4b73-94f4-26f4374a953c
d437d0aa-5f3b-44e6-8bad-00cb13c2ad67
041f486d-e47b-4226-be87-8e7b10413801
b1daf432-c1ed-4cee-b37a-1e9a3aeb575e
afa88e10-2abe-4f8c-9d9b-3f2ef69b81f8
d1fef544-8c38-4591-8a84-503550b5c687
63894d8d-a02a-45ea-bb38-ded313e3753a
8c251ae7-a680-4ecb-8df3-97b900e8180a
0e706d98-68e2-4a56-bd9f-552d0b3fc8ee
45b04b63-a3e5-4af1-8ec0-62a70fd8da0b
1f57df52-e1d5-42b4-88f6-d0738348c152
74ccb5c4-877a-4888-8fbd-b67e9fe4c312
47659f8a-b9bd-4e40-8c28-0b477b749b97
09b9b373-0503-4c77-b05d-0b40f698f34f
484a96a0-7888-4294-ade2-c81e7386f599
fbb9ddf9-2eb9-4a24-afcf-d013e31ee991
47c39396-da84-44dd-8c46-4ecbef38286a
d16001c2-852a-4bc5-9a17-88ff833b2b4d
7f107b9f-68c3-4209-9ff1-aef5c48c6732
583e889e-3ec2-443a-89a4-3b299302415e
afb00c08-e357-4136-8b07-cdc1d170323f
0f3bdb3a-2420-407d-9db5-719ccaa6d81a
ce812b03-8d05-4fa0-af2f-2eaa7a67a956
4e35128f-d714-45f5-91cf-d554c50cf702
d907f427-f5d8-48df-b655-e99bd90632b6
c4d6db1f-50e9-41aa-8dc4-e21d1dca8697
e937deb9-6b99-4e89-a34f-453ad84ee719
bfab072b-741b-4303-99e8-5e849ef1e6dd
e64b80f6-0ef8-43ef-b9ba-b2553fc54f0b
293e3388-953f-4c99-9e7e-b6375a6a89e1
e1bb3b3b-5d46-47eb-bdd8-04e5cbd5e2f8
a538e292-bd9d-4c79-ba9f-271b5a70f2f5
fbfe05a2-741a-45b9-b271-b499bd9679c4
a647f963-f738-47f3-8f76-781faa526503
6338811b-4892-435c-a76e-8321b59925dc
b47c7134-36e4-422a-a366-02a9045c1334
7e2be90f-38d6-4772-afea-fa2f5d948116
03c2a26d-453c-444b-a176-02b5c8e4a172
dc3f82be-f776-4ecd-9d0a-bbe0d9d7f455
a1448614-79cf-4abf-9072-f2510b8558dd
bb18de23-9aea-4d2d-816c-bad3c932a6cb
b4794967-75bc-4ce1-a763-87460110a0af
c0a2800a-6eb8-485f-a309-c7f896b4ec5b
bf2b5a5d-a35d-47bd-8d10-4c8827d3b92b
cb103266-8c25-42db-a97b-2c0c250c6d45
287a1df2-943e-49af-ad80-45a63e0b1863
722ada59-38cd-48ac-981d-6c193b5559d3
0f980735-744d-48a6-b82f-be07d903a629
b612ce23-9c80-4d7a-ae02-48bb67a54cd8
50fc1e25-db0b-45c1-9833-11975ac35220
9362848f-ff08-4df4-8d08-fd8e16649e5f
4ab7146c-b374-4ab1-8421-800b68328a5f
43e28cc0-6be7-40db-b6b1-0307544f3fee
482920d4-ee19-4cf6-ad2c-c62d350ec803
d963de67-67e1-4f43-8ac8-084ce49c305b
886e4518-cd35-4f33-b983-9c64a8c3b18b
4b326eca-2e15-4ebd-b48c-cfdfc87ab7e3
6759b18e-ba0f-417e-a2d2-d5345ec09214
f6e33776-ddc1-4dbe-93cb-071abd8f8ecd
5955104c-6546-4a2e-9a4f-6f03452e54d6
feefbd1c-f067-4ec0-9f10-85558e02783b
3d6d906d-531a-44d9-b41d-743cf624f1b7
86fb8a33-bcf1-4032-aafd-8be1e145b257
8be1bd28-c5a5-441a-be57-1fdb265d8732
d7864d16-41b7-48d1-82ab-ded6826515a2
7ad33f2c-734a-49a5-8655-9eac7a87c81c
501eab4f-4024-431b-88ab-e61aa7331517
a2910d52-0997-4180-bd62-49f4d57c981b
bb58a326-69d5-4023-a5c6-51bed28d560c
927ae2bf-0758-42e8-8cf3-5c07cb6574ad
f421cf92-aacc-4bd1-95d9-e7997cda99a6
5a5092a5-6793-40aa-80df-3ec8dcd3c0ca
116e8172-f01e-4835-be7d-6e5bc1235afb
e9b91f03-3e5a-4dfe-a5a3-a59f0f221f03
0985d958-b809-49b8-91d4-0e13c62216a3
b38fa657-dd0f-4175-b7db-61721f6a59d8
1b2727a6-df21-4f2d-a179-bedbc00c889b
009bea9b-6336-4653-b9e3-a5af5b91cf0a
1382fbcf-0991-48c7-b335-3b363f70586a
33aeda48-f68c-4a04-8afd-d70185372a9e
4032a19a-0fc1-4859-b957-44ff4d3fc87b
9dbfe5ed-9b4f-416b-a25a-06bcb82a7a1b
0d702e17-0c1c-4cc4-9c64-aa89f174f3e7
c40f038d-a2fb-4128-b880-ac3b02d3f2be
a1c200b6-b15f-49f3-92b2-a73b9a086270
e3f27f7d-0c21-4207-8bfe-345f030b76d2
d8232826-5c3a-409d-bed1-07656cb17f5e
04ccf1e2-3d8f-496b-a21b-4df42a41ea47
