{
  "environment": "ProductionPrimary",
  "region": "eu-west-1",
  "s3Prefix": S3_PREFIX eg "wandera-redshift-data-stgn-eu-west-1/redshift_data_stgn_networks/year=*/month=*/day=*/hour=*/minute=*",
  "filenameFilter": "",
  "clusterEndpoint": CLUSTER_ENDPOINT,
  "clusterPort": 5439,
  "clusterDB": DATABASE_NAME,
  "userName": DATABASE_USER_NAME,
  "userPwd": DATABASE_PASSWORD,
  "table": DATABASE_TABLE,
  "truncateTable": "N",
  "df": "CSV",
  "csvDelimiter": "\\t",
  "manifestBucket": MANIFEST_BUCKET,
  "manifestPrefix": MANIFEST_PREFIX eg "ent_stgn_network_log/manifest_all",
  "failedManifestPrefix": MANIFEST_FAILED_PREFIX eg "ent_stgn_network_log/manifest_failed",
  "accessKey": ACCESS_KEY,
  "secretKey": SECRET_KEY,
  "failureTopic": FAIL_TOPIC eg "arn:aws:sns:eu-west-1:571706765506:wandera-dev-lambda-redshift-eu_fail",
  "successTopic": SUCCESS_TOPIC eg "arn:aws:sns:eu-west-1:571706765506:wandera-dev-lambda-redshift-eu_all",
  "batchSize": 2,
  "batchTimeoutSecs": 60,
  "copyOptions": "REMOVEQUOTES GZIP ESCAPE MAXERROR 100000 NULL as 'null' TRUNCATECOLUMNS STATUPDATE OFF COMPUPDATE OFF"
}