{
  "environment": "Staging",
  "region": "eu-west-1",
  "s3Prefix": "wandera-redshift-data-stgn-eu-west-1/userservice_reportable_event/year=*/month=*/day=*/hour=*/minute=*",
  "filenameFilter": "",
  "clusterEndpoint": "wandera-dev-testing-eu.ckhvkdjbgwco.eu-west-1.redshift.amazonaws.com",
  "clusterPort": 5439,
  "clusterDB": "logging_data",
  "userName": "logging_user",
  "userPwd": "5tAg1ngLog55",
  "table": "userservice_reportable_event_log",
  "truncateTable": "N",
  "df": "CSV",
  "csvDelimiter": "\\t",
  "manifestBucket": "wandera-redshift-lambda-stgn-eu-west-1",
  "manifestPrefix": "userservice_reportable_event_log/manifest_all",
  "failedManifestPrefix": "userservice_reportable_event_log/manifest_failed",
  "accessKey": "AKIAIKGGDLEMGCN76TTA",
  "secretKey": "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",
  "failureTopic": "arn:aws:sns:eu-west-1:571706765506:wandera-redshift-lambda-stgn-eu-west-1-fail",
  "successTopic": "arn:aws:sns:eu-west-1:571706765506:wandera-redshift-lambda-stgn-eu-west-1-success",
  "batchSize": 2,
  "batchTimeoutSecs": 60,
  "copyOptions": "REMOVEQUOTES GZIP ESCAPE MAXERROR 100000 NULL as 'null' TRUNCATECOLUMNS STATUPDATE OFF COMPUPDATE OFF"
}