{
  "environment": "Staging",
  "region": "eu-west-1",
  "s3Prefix": "wandera-redshift-data-stgn-eu-west-1/raw_access_log/year=*/month=*/day=*/hour=*/minute=*",
  "filenameFilter": "",
  "clusterEndpoint": "wandera-dev-testing-eu.ckhvkdjbgwco.eu-west-1.redshift.amazonaws.com",
  "clusterPort": 5439,
  "clusterDB": "logging_data",
  "userName": "lambda_loader",
  "userPwd": "nestepuved5aXewa",
  "table": "proxy2logs",
  "truncateTable": "N",
  "df": "JSON",
  "jsonPaths": "s3://wandera-redshift-data-stgn-eu-west-1/raw_access_log/jsonpaths/proxy2logs.jsonpaths",
  "manifestBucket": "wandera-redshift-lambda-stgn-eu-west-1",
  "manifestPrefix": "proxy2logs/manifest_all",
  "failedManifestPrefix": "proxy2logs/manifest_failed",
  "accessKey": "AKIAIKGGDLEMGCN76TTA",
  "secretKey": "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",
  "failureTopic": "arn:aws:sns:eu-west-1:571706765506:wandera-redshift-lambda-stgn-eu-west-1-fail",
  "successTopic": "arn:aws:sns:eu-west-1:571706765506:wandera-redshift-lambda-stgn-eu-west-1-success",
  "batchSize": 2,
  "batchTimeoutSecs": 60,
  "copyOptions": "GZIP ACCEPTINVCHARS MAXERROR 100000 STATUPDATE OFF COMPUPDATE OFF"
}