Elapsed time,HTTP Request
19:29:33.500,978.0
19:29:34.0,145.66666666666666
19:29:34.500,114.25
19:29:35.0,107.8
19:29:35.500,118.25
19:29:36.0,138.28571428571428
19:29:36.500,113.88888888888889
19:29:37.0,123.75
19:29:37.500,121.55555555555556
19:29:38.0,119.83333333333333
19:29:38.500,133.75
19:29:39.0,124.58333333333333
19:29:39.500,125.41666666666667
19:29:40.0,115.61538461538461
19:29:40.500,113.3076923076923
19:29:41.0,116.08333333333333
19:29:41.500,153.9090909090909
19:29:42.0,112.17647058823529
19:29:42.500,103.33333333333333
19:29:43.0,136.83333333333334
19:29:43.500,106.05882352941177
19:29:44.0,129.52941176470588
19:29:44.500,103.2
19:29:45.0,146.8
19:29:45.500,163.55
19:29:46.0,116.0
19:29:46.500,101.85714285714286
19:29:47.0,131.3333333333333
19:29:47.500,103.72
19:29:48.0,108.51851851851852
19:29:48.500,117.84
19:29:49.0,119.11538461538461
19:29:49.500,135.13636363636363
19:29:50.0,152.38888888888889
19:29:50.500,121.8695652173913
19:29:51.0,144.66666666666666
19:29:51.500,113.1
19:29:52.0,102.78125
19:29:52.500,119.70588235294117
19:29:53.0,236.85
19:29:53.500,158.21739130434784
19:29:54.0,169.20833333333334
19:29:54.500,120.3
19:29:55.0,138.43333333333334
19:29:55.500,216.875
19:29:56.0,304.25
19:29:56.500,137.40000000000003
19:29:57.0,197.7
19:29:57.500,164.5185185185185
19:29:58.0,211.5
19:29:58.500,163.47058823529412
19:29:59.0,117.78947368421052
19:29:59.500,125.73529411764706
19:30:00.0,204.52173913043478
19:30:00.500,251.1818181818182
19:30:01.0,141.09375000000003
19:30:01.500,136.8
19:30:02.0,157.44117647058823
19:30:02.500,143.02564102564102
19:30:03.0,128.83333333333331
19:30:03.500,110.20930232558139
19:30:04.0,187.82142857142858
19:30:04.500,151.29411764705884
19:30:05.0,119.35
19:30:05.500,115.20454545454545
19:30:06.0,114.275
19:30:06.500,164.46666666666667
19:30:07.0,130.225
19:30:07.500,118.36363636363636
19:30:08.0,128.22580645161293
19:30:08.500,163.38709677419354
19:30:09.0,131.00000000000003
19:30:09.500,305.1111111111111
19:30:10.0,170.27906976744185
19:30:10.500,114.84210526315789
19:30:11.0,128.06818181818187
19:30:11.500,107.7560975609756
19:30:12.0,121.84615384615384
19:30:12.500,142.61290322580646
19:30:13.0,197.8181818181818
19:30:13.500,199.52
19:30:14.0,241.71428571428578
19:30:14.500,108.34883720930233
19:30:15.0,145.6764705882353
19:30:15.500,140.6060606060606
19:30:16.0,162.37037037037038
19:30:16.500,154.60526315789474
19:30:17.0,126.9
19:30:17.500,115.36585365853658
19:30:18.0,127.625
19:30:18.500,139.8421052631579
19:30:19.0,127.21621621621621
19:30:19.500,119.84848484848484
19:30:20.0,172.96666666666667
19:30:20.500,148.22857142857143
19:30:21.0,156.61764705882354
19:30:21.500,124.725
19:30:22.0,132.29999999999998
19:30:22.500,167.76470588235293
19:30:23.0,141.4411764705882
19:30:23.500,188.57692307692307
19:30:24.0,133.77500000000003
19:30:24.500,111.66666666666667
19:30:25.0,127.48780487804878
19:30:25.500,131.45945945945945
19:30:26.0,126.28947368421052
19:30:26.500,109.675
19:30:27.0,164.9
19:30:27.500,836.1666666666666
19:30:28.0,540.125
19:30:28.500,341.7083333333333
19:30:29.0,174.8108108108108
19:30:29.500,119.21212121212122
19:30:30.0,170.5142857142857
19:30:30.500,127.48571428571428
19:30:31.0,119.0
19:30:31.500,116.86111111111111
19:30:32.0,186.55555555555554
19:30:32.500,154.26315789473682
19:30:33.0,120.21428571428571
19:30:33.500,182.94117647058823
19:30:34.0,146.21212121212122
19:30:34.500,170.0384615384615
19:30:35.0,144.0731707317073
19:30:35.500,107.34782608695652
19:30:36.0,120.375
19:30:36.500,156.71428571428572
19:30:37.0,157.66666666666666
19:30:37.500,161.33333333333334
19:30:38.0,137.41025641025647
19:30:38.500,108.1470588235294
19:30:39.0,313.04761904761904
19:30:39.500,141.4848484848485
19:30:40.0,121.08333333333333
19:30:40.500,130.48387096774192
19:30:41.0,158.8780487804878
19:30:41.500,133.3030303030303
19:30:42.0,129.047619047619
19:30:42.500,115.21951219512195
19:30:43.0,137.0
19:30:43.500,157.88888888888889
19:30:44.0,125.36111111111111
19:30:44.500,154.6969696969697
19:30:45.0,173.79166666666666
19:30:45.500,185.14285714285714
19:30:46.0,116.77142857142857
19:30:46.500,160.11764705882354
19:30:47.0,122.44186046511626
19:30:47.500,100.73469387755102
19:30:48.0,122.82051282051282
19:30:48.500,120.11363636363636
19:30:49.0,126.38235294117646
19:30:49.500,142.76923076923075
19:30:50.0,137.73529411764707
19:30:50.500,139.02941176470588
19:30:51.0,154.96969696969694
19:30:51.500,142.84848484848484
19:30:52.0,146.5757575757576
19:30:52.500,131.4102564102564
19:30:53.0,143.0
19:30:53.500,126.65789473684215
19:30:54.0,128.375
19:30:54.500,143.82926829268294
19:30:55.0,117.63157894736842
19:30:55.500,181.89285714285714
19:30:56.0,119.1086956521739
19:30:56.500,103.65217391304348
19:30:57.0,131.14285714285717
19:30:57.500,208.66666666666666
19:30:58.0,141.33333333333334
19:30:58.500,179.37037037037038
19:30:59.0,119.0
19:30:59.500,142.22500000000005
19:31:00.0,116.11627906976744
19:31:00.500,111.47727272727273
19:31:01.0,109.73913043478261
19:31:01.500,108.46341463414635
19:31:02.0,126.46153846153847
19:31:02.500,140.27777777777774
19:31:03.0,115.4186046511628
19:31:03.500,112.675
19:31:04.0,169.1851851851852
19:31:04.500,185.625
19:31:05.0,135.08108108108107
19:31:05.500,137.97297297297297
19:31:06.0,114.6
19:31:06.500,166.7741935483871
19:31:07.0,165.03225806451613
19:31:07.500,129.5142857142857
19:31:08.0,142.5882352941176
19:31:08.500,146.14285714285717
19:31:09.0,180.7
19:31:09.500,146.24242424242425
19:31:10.0,142.09677419354838
19:31:10.500,149.13513513513513
19:31:11.0,132.02941176470588
19:31:11.500,221.94117647058823
19:31:12.0,208.79166666666666
19:31:12.500,179.23529411764707
19:31:13.0,218.12
19:31:13.500,128.61538461538458
19:31:14.0,108.56818181818181
19:31:14.500,135.6315789473684
19:31:15.0,108.51162790697674
19:31:15.500,132.65517241379314
19:31:16.0,133.8
19:31:16.500,208.33333333333334
19:31:17.0,118.15151515151516
19:31:17.500,155.8181818181818
19:31:18.0,170.14285714285714
19:31:18.500,165.66666666666666
19:31:19.0,126.46875
19:31:19.500,133.93103448275863
19:31:20.0,186.35714285714286
19:31:20.500,163.72500000000002
19:31:21.0,137.19444444444446
19:31:21.500,134.26470588235293
19:31:22.0,149.71428571428572
19:31:22.500,121.97674418604649
19:31:23.0,116.34285714285714
19:31:23.500,184.08333333333334
19:31:24.0,157.25
19:31:24.500,149.23809523809524
19:31:25.0,113.91111111111111
19:31:25.500,103.88235294117646
19:31:26.0,165.07894736842104
19:31:26.500,101.88372093023256
19:31:27.0,157.13333333333333
19:31:27.500,135.75609756097563
19:31:28.0,119.83783783783784
19:31:28.500,171.3
19:31:29.0,249.5625
19:31:29.500,285.60869565217394
19:31:30.0,110.88888888888889
19:31:30.500,129.96428571428572
19:31:31.0,148.86486486486487
19:31:31.500,141.09375
19:31:32.0,165.0909090909091
19:31:32.500,142.96969696969697
19:31:33.0,139.75675675675674
19:31:33.500,128.14285714285714
19:31:34.0,106.31372549019608
19:31:34.500,118.775
19:31:35.0,133.13513513513513
19:31:35.500,127.775
19:31:36.0,150.82758620689654
19:31:36.500,121.95454545454545
19:31:37.0,126.91176470588235
19:31:37.500,143.0344827586207
19:31:38.0,238.25
19:31:38.500,155.97619047619045
19:31:39.0,115.80952380952381
19:31:39.500,128.79310344827587
19:31:40.0,172.3611111111111
19:31:40.500,134.5142857142857
19:31:41.0,134.03225806451618
19:31:41.500,176.09677419354838
19:31:42.0,148.40540540540542
19:31:42.500,116.60975609756098
19:31:43.0,137.3529411764706
19:31:43.500,127.925
19:31:44.0,192.16
19:31:44.500,126.8048780487805
19:31:45.0,137.3513513513514
19:31:45.500,138.5757575757576
19:31:46.0,163.5151515151515
19:31:46.500,146.9714285714286
19:31:47.0,121.82051282051282
19:31:47.500,116.5
19:31:48.0,128.60526315789474
19:31:48.500,108.87234042553192
19:31:49.0,104.97777777777777
19:31:49.500,114.28888888888889
19:31:50.0,91.9795918367347
19:31:50.500,148.19354838709677
19:31:51.0,130.57142857142847
19:31:51.500,123.925
19:31:52.0,116.33333333333333
19:31:52.500,197.96969696969697
19:31:53.0,126.95
19:31:53.500,124.44186046511624
19:31:54.0,123.76315789473684
19:31:54.500,198.30434782608697
19:31:55.0,136.66666666666666
19:31:55.500,130.62162162162164
19:31:56.0,160.51724137931035
19:31:56.500,159.33333333333331
19:31:57.0,178.48275862068965
19:31:57.500,137.73529411764707
19:31:58.0,125.3953488372093
19:31:58.500,118.3157894736842
19:31:59.0,126.58536585365849
19:31:59.500,139.84615384615387
19:32:00.0,243.57142857142858
19:32:00.500,236.390243902439
19:32:01.0,131.0731707317073
19:32:01.500,124.25
19:32:02.0,117.11904761904762
19:32:02.500,112.77272727272727
19:32:03.0,130.36111111111117
19:32:03.500,127.10810810810813
19:32:04.0,109.68888888888888
19:32:04.500,124.71428571428571
19:32:05.0,131.13888888888889
19:32:05.500,132.68421052631584
19:32:06.0,117.2439024390244
19:32:06.500,155.48275862068962
19:32:07.0,138.4047619047619
19:32:07.500,118.54761904761905
19:32:08.0,128.77142857142854
19:32:08.500,111.69047619047619
19:32:09.0,161.1290322580645
19:32:09.500,121.6829268292683
19:32:10.0,111.78378378378379
19:32:10.500,162.48275862068965
19:32:11.0,206.73333333333332
19:32:11.500,115.57142857142857
19:32:12.0,152.21874999999997
19:32:12.500,127.17073170731707
19:32:13.0,102.3
19:32:13.500,162.53333333333327
19:32:14.0,143.43589743589743
19:32:14.500,141.0857142857143
19:32:15.0,125.83783783783788
19:32:15.500,142.7586206896552
19:32:16.0,161.11764705882354
19:32:16.500,135.58536585365854
19:32:17.0,121.95
19:32:17.500,122.36585365853658
19:32:18.0,127.66666666666667
19:32:18.500,125.88888888888886
19:32:19.0,155.78947368421055
19:32:19.500,148.03125000000006
19:32:20.0,141.45945945945945
19:32:20.500,179.3448275862069
19:32:21.0,116.72727272727273
19:32:21.500,120.97297297297297
19:32:22.0,132.76190476190476
19:32:22.500,116.58823529411765
19:32:23.0,126.56410256410257
19:32:23.500,136.66666666666666
19:32:24.0,173.0322580645161
19:32:24.500,160.83333333333334
19:32:25.0,156.25
19:32:25.500,121.07142857142857
19:32:26.0,123.91428571428571
19:32:26.500,136.42105263157896
19:32:27.0,98.06818181818181
19:32:27.500,180.06666666666663
19:32:28.0,149.78787878787878
19:32:28.500,122.1951219512195
19:32:29.0,105.75
19:32:29.500,104.4
19:32:30.0,110.59459459459457
19:32:30.500,385.42857142857144
19:32:31.0,179.7586206896552
19:32:31.500,110.06122448979593
19:32:32.0,105.79545454545455
19:32:32.500,124.09756097560974
19:32:33.0,103.52
19:32:33.500,129.9189189189189
19:32:34.0,116.44736842105263
19:32:34.500,141.40540540540542
19:32:35.0,161.1
19:32:35.500,136.13513513513513
19:32:36.0,141.83333333333334
19:32:36.500,174.53846153846155
19:32:37.0,149.575
19:32:37.500,147.5
19:32:38.0,176.2
19:32:38.500,265.1851851851853
19:32:39.0,170.87878787878788
19:32:39.500,134.72222222222223
19:32:40.0,199.375
19:32:40.500,128.61111111111111
19:32:41.0,136.48648648648648
19:32:41.500,140.93548387096777
19:32:42.0,305.1578947368421
19:32:42.500,169.19230769230768
19:32:43.0,169.63888888888889
19:32:43.500,136.13333333333333
19:32:44.0,189.3846153846154
19:32:44.500,104.0
19:32:45.0,768.5454545454545
19:32:45.500,185.28205128205133
19:32:46.0,107.94736842105263
19:32:46.500,840.0
19:32:47.0,304.5882352941176
19:32:47.500,205.13333333333333
19:32:48.0,171.08333333333334
19:32:48.500,172.9
19:32:49.0,172.52631578947367
19:32:51.0,1135.9444444444443
19:32:51.500,201.75
19:32:52.0,159.63888888888886
19:32:52.500,138.35294117647058
19:32:53.0,130.12820512820514
19:32:53.500,120.23255813953489
19:32:54.0,155.95833333333334
19:32:54.500,165.34375
19:32:55.0,139.72222222222226
19:32:55.500,201.47826086956522
19:32:56.0,181.36363636363637
19:32:56.500,114.6829268292683
19:32:57.0,119.70588235294115
19:32:57.500,195.25
19:32:58.0,206.14285714285714
19:32:58.500,129.25000000000006
19:32:59.0,175.6451612903226
19:32:59.500,153.17241379310343
19:33:00.0,156.83333333333334
19:33:00.500,109.17777777777778
19:33:01.0,184.06666666666666
19:33:01.500,109.25806451612904
19:33:02.0,149.90322580645164
19:33:02.500,148.53125
19:33:03.0,207.0
19:33:03.500,183.58333333333334
19:33:04.0,196.64864864864865
19:33:04.500,117.30952380952381
19:33:05.0,137.26470588235293
19:33:05.500,166.47826086956522
19:33:06.0,263.28
19:33:06.500,163.76923076923075
19:33:07.0,145.25
19:33:07.500,103.75862068965517
19:33:08.0,194.06896551724137
19:33:08.500,172.41176470588235
19:33:09.0,177.125
19:33:09.500,148.26315789473685
19:33:10.0,150.34285714285716
19:33:10.500,128.11428571428573
19:33:11.0,119.0
19:33:11.500,175.0625
19:33:12.0,157.5
19:33:12.500,204.88
19:33:13.0,112.8695652173913
19:33:13.500,123.70588235294117
19:33:14.0,122.35483870967741
19:33:14.500,187.26666666666668
19:33:15.0,178.21428571428572
19:33:15.500,148.0909090909091
19:33:16.0,150.14285714285714
19:33:16.500,122.25
19:33:17.0,211.5
19:33:17.500,191.96774193548387
19:33:18.0,158.72413793103448
19:33:18.500,133.42857142857142
19:33:19.0,124.3
19:33:21.0,2389.6666666666665
19:33:21.500,348.390243902439
19:33:22.0,129.61111111111111
19:33:22.500,127.34285714285714
19:33:23.0,175.0344827586207
19:33:23.500,189.0344827586207
19:33:24.0,125.88372093023254
19:33:24.500,124.60606060606061
19:33:25.0,179.17241379310346
19:33:25.500,108.5675675675676
19:33:26.0,186.33333333333334
19:33:26.500,120.1
19:33:27.0,123.27906976744184
19:33:27.500,106.95652173913044
19:33:28.0,125.80555555555559
19:33:28.500,149.65714285714284
19:33:29.0,143.28571428571428
19:33:29.500,123.48571428571428
19:33:30.0,161.9090909090909
19:33:30.500,160.61290322580646
19:33:31.0,147.41666666666666
19:33:31.500,166.26315789473685
19:33:32.0,134.2058823529412
19:33:32.500,130.97560975609755
19:33:33.0,128.74358974358975
19:33:33.500,138.8
19:33:34.0,136.3333333333333
19:33:34.500,137.51724137931035
19:33:35.0,140.61111111111111
19:33:35.500,156.3235294117647
19:33:36.0,135.6060606060606
19:33:36.500,150.89473684210526
19:33:37.0,125.61111111111111
19:33:37.500,160.34375
19:33:38.0,144.6451612903226
19:33:38.500,168.42857142857142
19:33:39.0,104.97826086956522
19:33:39.500,164.3793103448276
19:33:40.0,139.72727272727272
19:33:40.500,127.2222222222222
19:33:41.0,124.71428571428571
19:33:41.500,159.8709677419355
19:33:42.0,150.75757575757575
19:33:42.500,141.44117647058823
19:33:43.0,139.96774193548384
19:33:43.500,180.66666666666666
19:33:44.0,127.97727272727273
19:33:44.500,122.84848484848484
19:33:45.0,168.44827586206895
19:33:45.500,148.59459459459458
19:33:46.0,129.05128205128204
19:33:46.500,119.3953488372093
19:33:47.0,113.29545454545455
19:33:47.500,118.225
19:33:48.0,122.82857142857148
19:33:48.500,185.89285714285717
19:33:49.0,172.80645161290323
19:33:49.500,124.5
