{
  "environment": "ProductionSecondary",
  "region": "eu-west-1",
  "s3Prefix": "wandera-redshift-data-live-eu-west-secondary/redshift_data/year=*/month=*/day=*/hour=*/minute=*",
  "filenameFilter": "",
  "clusterEndpoint": "redshift-secondary-live-eu-west-1c.ckhvkdjbgwco.eu-west-1.redshift.amazonaws.com",
  "clusterPort": 5439,
  "clusterDB": "loggingdata",
  "userName": "logging_data",
  "userPwd": "5hefAduchadrEzu",
  "table": "proxy_logs",
  "truncateTable": "N",
  "df": "CSV",
  "csvDelimiter": "\\t",
  "manifestBucket": "wandera-redshift-lambda-prod-secondary-eu-west-1",
  "manifestPrefix": "proxy_logs/manifest_all",
  "failedManifestPrefix": "proxy_logs/manifest_failed",
  "accessKey": "AKIAIKGGDLEMGCN76TTA",
  "secretKey": "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",
  "failureTopic": "arn:aws:sns:eu-west-1:571706765506:wandera-redshift-lambda-prod-secondary-eu-west-1-fail",
  "successTopic": "arn:aws:sns:eu-west-1:571706765506:wandera-redshift-lambda-prod-secondary-eu-west-1-success",
  "batchSize": 1,
  "batchTimeoutSecs": 60,
  "copyOptions": "GZIP ESCAPE MAXERROR 100000 NULL as 'null' TRUNCATECOLUMNS STATUPDATE OFF COMPUPDATE OFF"
}