0,EC2,eu-west-2,1,TODO
1,EC2,eu-west-2,0.5,TODO
1,EC2,us-west-1,0.5,TODO
2,EC2,eu-west-2,0.5,TODO
2,EC2,us-west-1,0.5,TODO
3,EC2,us-east-1,0.5,TODO
3,SOFTLAYER,hkg,1,TODO
3,SOFTLAYER,mil,1,TODO
3,SOFTLAYER,tok,1,TODO
3,SOFTLAYER,tor,1,TODO
3,EC2,ap-southeast-1,1,TODO
3,EC2,ap-southeast-2,1,TODO
4,EC2,us-east-1,0.5,TODO
4,EC2,sa-east-1,1,TODO
4,EC2,eu-central-1,1,TODO
4,OPENSTACK,ALL,1,TODO
4,SOFTLAYER,par,1,TODO
